{
  "sections": {
    "main": {
      "type": "main-blog",
      "blocks": {
        "title": {
          "type": "title"
        },
        "summary": {
          "type": "summary"
        }
      },
      "block_order": [
        "title",
        "summary"
      ]
    }
  },
  "order": [
    "main"
  ]
}
