{
  "sections": {
    "main-product": {
      "type": "main-product-2",
      "blocks": {
        "vendor": {
          "type": "text"
        },
        "title": {
          "type": "title"
        },
        "price": {
          "type": "price"
        },
        "description": {
          "type": "description"
        },
        "variant_picker": {
          "type": "variant_picker"
        },
        "quantity_selector": {
          "type": "quantity_selector"
        },
        "buy_buttons": {
          "type": "buy_buttons"
        }
      },
      "block_order": [
        "vendor",
        "title",
        "price",
        "description",
        "variant_picker",
        "quantity_selector",
        "buy_buttons"
      ]
    },
    "accordion": {
      "type": "product-accordion-2",
      "blocks": {
        "accordion_1": {
          "type": "accordion",
          "settings": {
            "question": "Ingredients",
            "answer": "<p>Duck protein (44%), fresh duck (26%), chicken fat (preserved with tocopherol), peas, sweet potatoes, hydrolysed chicken liver (2%), salmon oil, dried apples, carrots, dried kelp (Ascophyllum nodosum), glucosamine (0.026%), condroitin sulphate (0.016%)</p>"
          }
        },
        "accordion_2": {
          "type": "accordion",
          "settings": {
            "question": "Nutrients",
            "answer": "<p>There are six essential nutrients that are required in order to support life and function in dogs. These are: water, carbohydrates (including fiber), vitamins, minerals, fat, protein</p>"
          }
        },
        "accordion_3": {
          "type": "accordion",
          "settings": {
            "question": "Feeding Guidance",
            "answer": "<p>Suitable for all dog breeds of all sizes:<br>Up to 10kg = 2 to 3 treats / day</br>Up to 30kg = 3 to 4 treats / day</br>Over 30 kg = 4 to 5 treats / day</br>This product is intended for occasional or supplemental feeding only. After all it is a treat!</p>"
          }
        }
      },
      "block_order": ["accordion_1", "accordion_2", "accordion_3"]
    },
    "product-recommendations" : {
      "type": "product-recommendations"
    }
  },
  "order": [
    "main-product",
    "accordion",
    "product-recommendations"
  ]
}
