{
  "name": "Typography",
  "settings": {
    "type_header_font": {
      "label": "Font",
      "info": "Selecting a different font can affect the speed of your store. [Learn more about system fonts.](https://help.shopify.com/en/manual/online-store/os/store-speed/improving-speed#fonts)"
    },
    "header__1": {
      "content": "Headings"
    },
    "header__2": {
      "content": "Body"
    },
    "type_body_font": {
      "label": "Font",
      "info": "Selecting a different font can affect the speed of your store. [Learn more about system fonts.](https://help.shopify.com/en/manual/online-store/os/store-speed/improving-speed#fonts)"
    }
  }
}
