{
  "name": "Product detail",
  "settings": {
    "use_section_setting": {
      "label": "Use section setting"
    },
    "use_product_rating": {
      "label": "Use product rating",
      "info": "Install [Product Reviews App](https://apps.shopify.com/product-reviews?locale=fr&surface_detail=Product%20review&surface_inter_position=1&surface_intra_position=5&surface_type=search) ( by Shopify, free plan )"
    },
    "header__1": {
      "content": "Color"
    },
    "background": {
      "label": "Background"
    },
    "background_input": {
      "label": "Background input"
    },
    "color_input": {
      "label": "color_input"
    },
    "header__2": {
      "content": "Slide"
    },
    "show_image_product": {
      "label": "Show the first two media of the product",
      "info": "Only applicable to products with three or more media"
    }
  },
  "blocks": {
    "buy_buttons": {
      "name": "Buy buttons",
      "show_dynamic_checkout": {
        "label": "Show dynamic checkout buttons",
        "info": "Using the payment methods available on your store, customers see their preferred option, like PayPal or Apple Pay. [Learn more](https://help.shopify.com/manual/using-themes/change-the-layout/dynamic-checkout)"
      }
    }
  }
}