{
  "name": "Testimonial 2",
  "settings": {
    "heading": {
      "label": "Heading"
    },
    "image": {
      "label": "Image",
      "info": "750 x 1100px .jpg recommended"
    }
  },
  "blocks": {
    "name": "Testimonial",
    "settings": {
      "image_avatar": {
        "label": "Avatar"
      },
      "testimonial": {
        "label": "Tesimonial"
      },
      "comment": {
        "label": "Comment"
      },
      "header__1": {
        "content": "Color"
      },
      "color_text": {
        "label": "Text"
      },
      "background_comment": {
        "label": "Background comment"
      }
    }
  }
}
