{
  "name": "Social media",
  "settings": {
    "share_facebook": {
      "label": "Share on Facebook"
    },
    "share_twitter": {
      "label": "Tweet on Twitter"
    },
    "share_pinterest": {
      "label": "Pin on Pinterest"
    },
    "header__1": {
      "content": "Social sharing options"
    },
    "header__2": {
      "content": "Social accounts"
    },
    "social_twitter_link": {
      "label": "Twitter",
      "info": "https://twitter.com/shopify"
    },
    "social_facebook_link": {
      "label": "Facebook",
      "info": "https://facebook.com/shopify"
    },
    "social_pinterest_link": {
      "label": "Pinterest",
      "info": "https://pinterest.com/shopify"
    },
    "social_instagram_link": {
      "label": "Instagram",
      "info": "http://instagram.com/shopify"
    },
    "social_tiktok_link": {
      "label": "TikTok",
      "info": "https://tiktok.com/@shopify"
    },
    "social_tumblr_link": {
      "label": "Tumblr",
      "info": "https://shopify.tumblr.com"
    },
    "social_snapchat_link": {
      "label": "Snapchat",
      "info": "https://www.snapchat.com/add/shopify"
    },
    "social_youtube_link": {
      "label": "YouTube",
      "info": "https://www.youtube.com/shopify"
    },
    "social_vimeo_link": {
      "label": "Vimeo",
      "info": "https://vimeo.com/shopify"
    }
  }
}
