{
  "name": "Map",
  "settings": {
    "header__1": {
      "type": "header",
      "content": "Header"
    },
    "heading": {
      "label": "Heading"
    },
    "subheading": {
      "label": "Subheading"
    },
    "google_api_key": {
      "label": "Google Maps API key"
    },
    "header__2": {
      "content": "Background image"
    },
    "image_desktop": {
      "label": "Desktop",
      "info": "Displayed if the map isn't loaded"
    },
    "image_mobile": {
      "label": "Mobile",
      "info": "750 x 1100px .jpg recommended. If none is set, desktop image will be cropped"
    }
  },
  "blocks": {
    "name": "Locate",
    "settings": {
      "address": {
        "label": "Address"
      }
    }
  }
}