{
  "name": "t:sections.activity-toys.name",
  "tag": "section",
  "settings": [
    {
      "type": "header",
      "content": "t:sections.activity-toys.settings.header__1.content"
    },
    {
      "type": "image_picker",
      "id": "image",
      "label": "t:sections.activity-toys.settings.image.label"
    },
    {
      "type": "header",
      "content": "t:sections.activity-toys.settings.header__2.content"
    },
    {
      "type": "text",
      "id": "heading",
      "label": "t:sections.activity-toys.settings.heading.label",
      "default": "Up to 30% activity-toys"
    },
    {
      "type": "textarea",
      "id": "desc",
      "label": "t:sections.activity-toys.settings.subheading.label",
      "default": "Milky fresh food is safe enough for humans to eat, but specially designed for your dog. Here is our essential recipes for your dog."
    },
    {
      "type": "header",
      "content": "t:sections.activity-toys.settings.header__3.content"
    },
    {
      "type": "text",
      "id": "link",
      "label": "t:sections.activity-toys.settings.link.label",
      "default": "shop now"
    },
    {
      "type": "url",
      "id": "link_to",
      "label": "t:sections.activity-toys.settings.link_to.label"
    },
    {
      "type": "header",
      "content": "t:sections.activity-toys.settings.header__4.content"
    },
    {
      "type": "color",
      "id": "color_text",
      "label": "t:sections.activity-toys.settings.color_text.label",
      "default": "#FF6A7C"
    },
    {
      "type": "color",
      "id": "color_bg",
      "label": "t:sections.activity-toys.settings.background.label",
      "default": "#FFF8FA"
    }
  ],
  "presets": [
    {
      "name": "t:sections.activity-toys.name"
    }
  ]
}