{
  "name": "t:sections.invitation.name",
  "settings": [
    {
      "type": "image_picker",
      "id": "image_desktop",
      "label": "t:sections.invitation.settings.image_desktop.label",
      "info": "t:sections.invitation.settings.image_desktop.info"
    },
    {
      "type": "image_picker",
      "id": "image_mobile",
      "label": "t:sections.invitation.settings.image_mobile.label",
      "info": "t:sections.invitation.settings.image_mobile.info"
    },
    {
      "type": "checkbox",
      "id": "full",
      "default": true,
      "label": "t:sections.invitation.settings.full.label"
    },
    {
      "type": "header",
      "content": "t:sections.invitation.settings.header__1.content"
    },
    {
      "type": "checkbox",
      "id": "box",
      "default": false,
      "label": "t:sections.invitation.settings.box.label"
    },
    {
      "type": "color",
      "id": "box_bg",
      "label": "t:sections.invitation.settings.background_box.label",
      "default": "#fff"
    },
    {
      "type": "select",
      "id": "text_box_position",
      "options": [
        {
          "value": "flex-start",
          "label": "t:sections.invitation.settings.text_box_position.options.options__1.label"
        },
        {
          "value": "center",
          "label": "t:sections.invitation.settings.text_box_position.options.options__2.label"
        },
        {
          "value": "flex-end",
          "label": "t:sections.invitation.settings.text_box_position.options.options__3.label"
        }
      ],
      "default": "flex-start",
      "label": "t:sections.invitation.settings.text_box_position.label"
    }
  ],
  "blocks": [
    {
      "type": "text",
      "name": "t:sections.invitation.blocks.name_1",
      "limit": 1,
      "settings": [
        {
          "type": "text",
          "id": "heading",
          "default": "Making with 100% original ingredients",
          "label": "t:sections.invitation.blocks.settings.heading.label"
        },
        {
          "type": "textarea",
          "id": "subheading",
          "default": "A complete feed for more active dogs and larger breeds. Contains a lot of protein and fat to cover all nutritional needs for muscle growth, healthy tissue and bones.",
          "label": "t:sections.invitation.blocks.settings.subheading.label"
        },
        {
          "type": "header",
          "content": "t:sections.invitation.blocks.settings.header__1.content"
        },
        {
          "type": "color",
          "id": "color_heading",
          "label": "t:sections.invitation.blocks.settings.heading.label",
          "default": "#F0510D"
        },
        {
          "type": "color",
          "id": "color_subheading",
          "label": "t:sections.invitation.blocks.settings.subheading.label",
          "default": "#F0510D"
        }
      ]
    },
    {
      "type": "buttons",
      "name": "t:sections.invitation.blocks.name_2",
      "limit": 1,
      "settings": [
        {
          "type": "text",
          "id": "button_label",
          "default": "Button label",
          "label": "t:sections.invitation.blocks.settings.button_label.label",
          "info": "t:sections.invitation.blocks.settings.button_label.info"
        },
        {
          "type": "url",
          "id": "button_link",
          "label": "t:sections.invitation.blocks.settings.button_link.label"
        },
        {
          "type": "select",
          "id": "button_type",
          "label": "t:sections.invitation.blocks.settings.button_type.label",
          "options": [
            {
              "value": "text",
              "label": "t:sections.invitation.blocks.settings.button_type.options.options__1.label"
            },
            {
              "value": "button",
              "label": "t:sections.invitation.blocks.settings.button_type.options.options__2.label"
            }
          ],
          "default": "text"
        },
        {
          "type": "color",
          "id": "color_text_btn",
          "label": "t:sections.invitation.blocks.settings.color_text_btn.label",
          "default": "#F0510D"
        },
        {
          "type": "color",
          "id": "color_bg_btn",
          "label": "t:sections.invitation.blocks.settings.color_bg_btn.label",
          "default": "#F0510D"
        }
      ]
    }
  ],
  "presets": [
    {
      "name": "t:sections.invitation.name",
      "blocks": [
        {
          "type": "text"
        },
        {
          "type": "buttons"
        }
      ]
    }
  ]
}